<?xml version="1.0" encoding="UTF-8" standalone="no"?>
<!-- Created with Inkscape (http://www.inkscape.org/) -->

<svg
   xmlns:dc="http://purl.org/dc/elements/1.1/"
   xmlns:cc="http://creativecommons.org/ns#"
   xmlns:rdf="http://www.w3.org/1999/02/22-rdf-syntax-ns#"
   xmlns:svg="http://www.w3.org/2000/svg"
   xmlns="http://www.w3.org/2000/svg"
   xmlns:sodipodi="http://sodipodi.sourceforge.net/DTD/sodipodi-0.dtd"
   xmlns:inkscape="http://www.inkscape.org/namespaces/inkscape"
   width="210mm"
   height="297mm"
   viewBox="0 0 210 297"
   version="1.1"
   id="svg8"
   inkscape:version="0.92.5 (2060ec1f9f, 2020-04-08)"
   sodipodi:docname="logo.svg">
  <defs
     id="defs2" />
  <sodipodi:namedview
     id="base"
     pagecolor="#ffffff"
     bordercolor="#666666"
     borderopacity="1.0"
     inkscape:pageopacity="0.0"
     inkscape:pageshadow="2"
     inkscape:zoom="0.7"
     inkscape:cx="271.82261"
     inkscape:cy="503.08359"
     inkscape:document-units="mm"
     inkscape:current-layer="layer1"
     showgrid="false"
     inkscape:window-width="1247"
     inkscape:window-height="1408"
     inkscape:window-x="1304"
     inkscape:window-y="0"
     inkscape:window-maximized="0" />
  <metadata
     id="metadata5">
    <rdf:RDF>
      <cc:Work
         rdf:about="">
        <dc:format>image/svg+xml</dc:format>
        <dc:type
           rdf:resource="http://purl.org/dc/dcmitype/StillImage" />
        <dc:title></dc:title>
      </cc:Work>
    </rdf:RDF>
  </metadata>
  <g
     inkscape:label="Layer 1"
     inkscape:groupmode="layer"
     id="layer1">
    <path
       style="fill:#f2b04d;stroke:none;stroke-width:1.50000012;stroke-linecap:round;stroke-miterlimit:4;stroke-dasharray:none;stroke-dashoffset:0;fill-opacity:1"
       d="m 22.68099,148.5 11.759911,11.75991 11.759911,11.75991 11.759911,11.75991 11.759911,11.75991 11.759912,11.75991 11.759911,11.75991 L 105,230.81901 116.75991,219.0591 128.51982,207.29919 140.27973,195.53928 152.03965,183.77937 163.79919,172.01982 175.5591,160.25991 187.31901,148.5 175.55947,136.74046 163.79956,124.98055 152.03964,113.22063 140.27973,101.46072 128.51982,89.700812 116.75991,77.940901 105,66.18099 93.240093,77.940901 81.48018,89.700813 69.720636,101.46036 57.960723,113.22027 46.200812,124.98018 34.440901,136.74009 Z m 23.519822,0 L 57.960723,136.74009 69.720634,124.98018 81.480547,113.22027 93.240091,101.46072 105,89.700812 116.75991,101.46072 105,113.22063 93.240458,124.98018 81.480545,136.74009 69.720634,148.5 l 11.759911,11.75991 11.759911,11.75991 11.759914,11.75991 11.75991,-11.75991 11.75991,-11.75991 11.75954,-11.75954 L 128.51982,136.74046 116.76028,148.5 105.00037,160.25991 93.240456,148.5 l 11.759914,-11.75991 11.75954,-11.75954 11.75991,-11.75992 11.75991,11.75991 11.75992,11.75992 11.75991,11.75991 -11.75992,11.7599 -11.75954,11.75955 -11.75991,11.75991 -11.75991,11.75991 -11.75991,11.75991 L 93.240458,195.53964 81.480545,183.77973 69.720634,172.01982 57.960723,160.25991 Z"
       id="rect815"
       inkscape:connector-curvature="0" />
  </g>
</svg>
